[
	{	from:"Shqipron Cami",
		to: "Mary Papuyo",
		type: "Sent Direct Message to",
		date: "March 16, 2018, 7:38AM",
		image: "image_13.jpg",
		commit: "Greece Trip",
	},
	{	from:"Mary Papuyo",
		to: "Shqipron Cami",
		type: "Paid",
		amount: "$15.00",
		image: "d1.jpg",
		date: "March 16, 2018, 7:38AM",
		commit: "Greece Trip",
	},
	{	from:"Shqipron Cami",
		to: "Mary Papuyo",
		type: "Sent Direct Message to",
		image: "image_13.jpg",
		date: "March 16, 2018, 7:38AM",
		commit: "Greece Trip",
	},
	{	from:"Mary Papuyo",
		to: "Shqipron Cami",
		type: "Paid",
		amount: "$15.00",
		image: "d1.jpg",
		date: "March 16, 2018, 7:38AM",
		commit: "Greece Trip",
	},
]
